eda
…
Modeling using caret

# perm_crop contains only the variables we will use
perm_crop <- perm %>%
  select(CERT_BIN, DECISION_DATE, JOB_INFO_EDUCATION, PW_AMOUNT_9089, EMPLOYER_NUM_EMPLOYEES, EMPLOYER_YR_ESTAB) %>%
  drop_na() %>%
  mutate(CERT_BIN = as.factor(case_when(
    CERT_BIN == 1 ~ "y",
    CERT_BIN == 0 ~ "n"
  ))) %>%
  sample_n(10000)
perm_crop

## # A tibble: 10,000 x 6
##    CERT_BIN DECISION_DATE JOB_INFO_EDUCAT PW_AMOUNT_9089 EMPLOYER_NUM_EM
##    <fct>    <date>        <fct>                     <dbl>            <dbl>
##  1 y        2016-01-12    Bachelor's                79102             3500
##  2 y        2017-10-25    Master's                  84656            67100
##  3 y        2018-08-31    None                      20821                6
##  4 y        2016-04-14    Master's                 111114            55759
##  5 y        2017-06-23    Master's                 117770             1000
##  6 y        2018-07-11    Associate's               58926               14
##  7 n        2018-04-04    Bachelor's                69820              125
##  8 y        2015-01-12    Master's                  98927            66639
##  9 y        2018-05-29    Master's                 102669            14765
## 10 y        2018-08-22    Bachelor's                58282            14000
## #  with 9,990 more rows, and 1 more variable: EMPLOYER_YR_ESTAB <dbl>
…
